…
city_fit
```

    ## # A tibble: 47 x 5
    ##    city_state      term                    OR conf_low conf_high
    ##    <chr>           <chr>                <dbl>    <dbl>     <dbl>
    ##  1 Albuquerque, NM victim_racenon_white 0.938    0.844     1.04 
    ##  2 Atlanta, GA     victim_racenon_white 0.936    0.824     1.06 
    ##  3 Baltimore, MD   victim_racenon_white 0.824    0.762     0.892
    ##  4 Baton Rouge, LA victim_racenon_white 0.912    0.766     1.09 
    ##  5 Birmingham, AL  victim_racenon_white 1.01     0.888     1.15 
    ##  6 Boston, MA      victim_racenon_white 0.675    0.587     0.776
    ##  7 Buffalo, NY     victim_racenon_white 0.797    0.693     0.917
    ##  8 Charlotte, NC   victim_racenon_white 0.898    0.812     0.994
    ##  9 Chicago, IL     victim_racenon_white 0.882    0.834     0.932
    ## 10 Cincinnati, OH  victim_racenon_white 0.786    0.703     0.880
    ## # ... with 37 more rows
…
